module gitlab.com/bennu7/go-gin-up

go 1.20

require (
	github.com/golang-jwt/jwt v3.2.2+incompatible
	github.com/joho/godotenv v1.5.1
)

require (
	github.com/aws/aws-sdk-go-v2 v1.17.6 // indirect
	github.com/aws/aws-sdk-go-v2/aws/protocol/eventstream v1.4.10 // indirect
	github.com/aws/aws-sdk-go-v2/config v1.18.18 // indirect
	github.com/aws/aws-sdk-go-v2/credentials v1.13.17 // indirect
	github.com/aws/aws-sdk-go-v2/feature/ec2/imds v1.13.0 // indirect
	github.com/aws/aws-sdk-go-v2/feature/s3/manager v1.11.58 // indirect
	github.com/aws/aws-sdk-go-v2/internal/configsources v1.1.30 // indirect
	github.com/aws/aws-sdk-go-v2/internal/endpoints/v2 v2.4.24 // indirect
	github.com/aws/aws-sdk-go-v2/internal/ini v1.3.31 // indirect
	github.com/aws/aws-sdk-go-v2/internal/v4a v1.0.22 // indirect
	github.com/aws/aws-sdk-go-v2/service/internal/accept-encoding v1.9.11 // indirect
	github.com/aws/aws-sdk-go-v2/service/internal/checksum v1.1.25 // indirect
	github.com/aws/aws-sdk-go-v2/service/internal/presigned-url v1.9.24 // indirect
	github.com/aws/aws-sdk-go-v2/service/internal/s3shared v1.13.24 // indirect
	github.com/aws/aws-sdk-go-v2/service/s3 v1.30.6 // indirect
	github.com/aws/aws-sdk-go-v2/service/sso v1.12.5 // indirect
	github.com/aws/aws-sdk-go-v2/service/ssooidc v1.14.5 // indirect
	github.com/aws/aws-sdk-go-v2/service/sts v1.18.6 // indirect
	github.com/aws/smithy-go v1.13.5 // indirect
	github.com/jackc/pgpassfile v1.0.0 // indirect
	github.com/jackc/pgservicefile v0.0.0-20221227161230-091c0ba34f0a // indirect
	github.com/jackc/pgx/v5 v5.3.0 // indirect
	github.com/jmespath/go-jmespath v0.4.0 // indirect
)

require (
	github.com/bytedance/sonic v1.8.4 // indirect
	github.com/chenzhuoyu/base64x v0.0.0-20221115062448-fe3a3abad311 // indirect
	github.com/gin-contrib/sse v0.1.0 // indirect
	github.com/gin-gonic/gin v1.9.0 // indirect
	github.com/go-playground/locales v0.14.1 // indirect
	github.com/go-playground/universal-translator v0.18.1 // indirect
	github.com/go-playground/validator/v10 v10.11.2 // indirect
	github.com/goccy/go-json v0.10.1 // indirect
	github.com/jinzhu/inflection v1.0.0 // indirect
	github.com/jinzhu/now v1.1.5 // indirect
	github.com/json-iterator/go v1.1.12 // indirect
	github.com/klauspost/cpuid/v2 v2.2.4 // indirect
	github.com/leodido/go-urn v1.2.2 // indirect
	github.com/lib/pq v1.10.7 // indirect
	github.com/mattn/go-isatty v0.0.17 // indirect
	github.com/modern-go/concurrent v0.0.0-20180306012644-bacd9c7ef1dd // indirect
	github.com/modern-go/reflect2 v1.0.2 // indirect
	github.com/pelletier/go-toml/v2 v2.0.7 // indirect
	github.com/sashabaranov/go-openai v1.5.2 // indirect
	github.com/twitchyliquid64/golang-asm v0.15.1 // indirect
	github.com/ugorji/go/codec v1.2.11 // indirect
	golang.org/x/arch v0.3.0 // indirect
	golang.org/x/crypto v0.7.0 // indirect
	golang.org/x/net v0.8.0 // indirect
	golang.org/x/sys v0.6.0 // indirect
	golang.org/x/text v0.8.0 // indirect
	google.golang.org/protobuf v1.29.0 // indirect
	gopkg.in/yaml.v3 v3.0.1 // indirect
	gorm.io/driver/postgres v1.5.0
	gorm.io/gorm v1.24.7-0.20230306060331-85eaf9eeda11 // indirect
)
